Company name,Business registration number,office address,Contact number,FAX,Name,,,
KJ,108-04-34817,경기도 김포시 대곶면 을생중앙로 159번길 43-14,031-982-7482,031-982-7483,경종길,,,
고려메탈,312-86-54214,충남 천안시 서북구 입장면 하장리 322,041-584-5233,,최익수,,,                                                                                                                                                                                                                                                                                                                                                                                                                                               
금경이노텍 ,610-81-54490,경남 울산시 울주군 온산읍 처용산업로 51-22,052-237-3935,052-237-3912,전병복,,,
나노카보나,124-86-47644,충북 충주시 주덕읍 창전길 204,043-857-8130,,신일산,,,
대구경북알루미늄비철금속공업협동조합,504-82-02092,대구광역시 북구 침산남로 17(노원동 1가),053-357-4427,,김정욱,,,
대림비렛트㈜,356-81-00047,경기도 양주시 남면 감약산로 83번길 107-1,031-859-2905,031-859-4905,노욱동,,,
대성이노텍,314-86-22644,경기도 김포시 양촌읍 학운리 334,070-4119-9382,032-714-3154,조한능,,,
대진경금속,137-81-29569,경기도 화성시 마도면 마도로 339,031-356-0033,,박인환,,,
대한엠앤씨,214-87-06579,강원도 춘천시 남산면 창촌리 300-12,,,신중욱,,,
리프론,,경남 창녕군 계성면 영산계성로 560,070-8661-5730,,박영수,,,
린노알루미늄,620-81-33833,경남 울산시 울주군 상북면 길천리 기천일반 산업단지 1236-2,052-707-5001,,이세용,,,
명신테크,143-81-00081,경기도 화성시 서심면 효자각로 208-37,031-357-2965,031-357-2964,강병준,,,
모건알루미늄공업,139-81-25986,인천광역시 남동구 고잔동 648-1번지(남동공단),032-817-6661,,이동현,,,
바이오매스아시아,119-86-15612,서울특별시 관악구 솔밭고 1 봉천동 3층,02-884-3363,,김국진,,,
보림기계공업㈜,,충남 금산면 복수면 수목로 122-18,041-754-7114,,,,,
삼우EMC,622-81-15957,경남 울산시 울주군 상북면 길천리 1236-2,052-707-5001,052-707-5002,조순옥,,,
삼우금속,606-81-06081,경남 양산시 묵정동 107-3(산막공단 남3길 6),055-387-7733,,이영흔,,,
서울비철금속,137-86-27528,경기도 김포시 대곶면 을생중앙로 52번길 172-19,031-986-4885,031-986-4809,이종운,,,
서울알루미늄공업협동조합,116-81-00238,서울특별시 영등포구 여의도동 35-2 백상빌딩 808호 ,02-783-6737,,전종열,,,
성일금속,201-81-72144,,02-521-3259,,도계명,,,
세명로드㈜,324-87-01212,경기도 화성시 양감면 안요골길 82번길 81,070-7782-0561,031-352-7399,유동훈,,,
승일알루미늄,124-81-14124,경기도 화성시 팔탄면 터넉골로 165번길 70-12,031-354-3600,031-354-3602,진용태,,,
애니솔,312-81-89794,충남 천안시 서북구 직산읍 삼은리 504,041-574-4530,041-574-4530,유용희,,,
우림알텍㈜,311-81-39229,충남 당진시 순성면 순성로 383-1,041-352-5081,041-357-5081,임헌범,,,
우신금속,603-81-19103,,010-9335-1879,,박원식,,,
우주㈜,123-86-15004,경기도 안양시 만안구 덕천로 34 명지e스페이스 8층,031-466-2272,031-466-2290,나재희,,,
운산기업사,311-81-44154,경기도 화성시 마도면 쌍송리 17-1,031-366-2141,031-366-2143,배성택,,,
은성알루미늄,128-81-65917,경기도 파주시 문산읍 이천리 197-1,031-954-3194,,이진성,,,
인천경기알루미늄공업협동조합,131-82-00353,인천광역시 미추홀구 장고개로 77-1,032-868-1101,,이정수,,,
한립지엘공업,,경기도 안산시 목내동 400-1,031-494-8175,,권성조 ,,,